%YAML 1.1
%TAG !u! tag:unity3d.com,2011:
--- !u!114 &11400000
MonoBehaviour:
  m_ObjectHideFlags: 0
  m_CorrespondingSourceObject: {fileID: 0}
  m_PrefabInstance: {fileID: 0}
  m_PrefabAsset: {fileID: 0}
  m_GameObject: {fileID: 0}
  m_Enabled: 1
  m_EditorHideFlags: 0
  m_Script: {fileID: 11500000, guid: 04844e5ead7fcff4b8503f9ce6e5b775, type: 3}
  m_Name: D6 x1 +0 - Spear
  m_EditorClassIdentifier: 
  Name: Spear
  Quantity: 1
  Type: 6
  Modifier: 0
