%YAML 1.1
%TAG !u! tag:unity3d.com,2011:
--- !u!114 &11400000
MonoBehaviour:
  m_ObjectHideFlags: 0
  m_CorrespondingSourceObject: {fileID: 0}
  m_PrefabInstance: {fileID: 0}
  m_PrefabAsset: {fileID: 0}
  m_GameObject: {fileID: 0}
  m_Enabled: 1
  m_EditorHideFlags: 0
  m_Script: {fileID: 11500000, guid: bbb281ee3bf0b054c82ac2347e9e782c, type: 3}
  m_Name: Localization-Assets-English
  m_EditorClassIdentifier: 
  m_GroupName: Localization-Assets-English
  m_Data:
    m_SerializedData: []
  m_GUID: 5c72d8c81c79b5a47b60e41ccccdb9ca
  m_SerializeEntries: []
  m_ReadOnly: 1
  m_Settings: {fileID: 11400000, guid: f296af606d39c4f9885c71802e21283a, type: 2}
  m_SchemaSet:
    m_Schemas:
    - {fileID: 11400000, guid: 244f9b4a04f4bb54baa6f04227ea0be1, type: 2}
    - {fileID: 11400000, guid: d0d7cea2d83a9aa4cb38fdb9558d2446, type: 2}
